Intro To R
…
Challenge: Install and load the dplyr package, such that you can use filter() and select() in this workshop.

Find the solution in the drop-down.

 Recall that in order to use read_csv() from the readr package, we needed to install readr using install.packages(), followed by loading the package using library().

install.packages("dplyr") # install dplyr, only needs to be done once

library(dplyr) # load dplyr, needs to be done every time RStudio is started up

To select particular rows, we use the filter() function. This function takes our tibble of interest (healthData) and a criterion for filtering. For example, to select rows with participants of the female sex from healthData, then the criterion is Sex == "female" (note the use of the double =):

filter(healthData, Sex == "female")

## # A tibble: 4,963 x 5
##       ID Sex      Age Height Weight
##    <dbl> <chr>  <dbl>  <dbl>  <dbl>
##  1 71460 female    47   148.   62.3
##  2 65251 female    10   154.   42.7
##  3 59520 female    14   158.   79.1
##  4 51782 female    23   157.   85.6
##  5 71104 female    78   151.   84.5
##  6 68471 female    15   167.  131. 
##  7 64653 female     1    NA    11.4
##  8 64055 female    59   155.   93.7
##  9 57092 female     6    NA    NA  
## 10 66541 female    70   170.   66.5
## # ... with 4,953 more rows

We could also filter based on a column with continuous data. For example, if we wanted to retain the data on participants below 170 cm:

filter(healthData, Height < 170)

## # A tibble: 6,023 x 5
##       ID Sex      Age Height Weight
##    <dbl> <chr>  <dbl>  <dbl>  <dbl>
##  1 71460 female    47   148.   62.3
##  2 64041 male       9   151.   62.9
##  3 69722 male       7   116.   21.4
##  4 59289 male      30   165.   50.1
##  5 71034 male      11   144.   42.6
##  6 65251 female    10   154.   42.7
##  7 59520 female    14   158.   79.1
##  8 56541 male       8   137.   36.6
##  9 63316 male      10   145.   56.2
## 10 51782 female    23   157.   85.6
## # ... with 6,013 more rows

The function for selecting columns is select(). The names of the columns that we want to keep are included inside select() as a vector. For example, to retain the ID and Height columns:

select(healthData, c(ID, Height))

## # A tibble: 10,000 x 2
##       ID Height
##    <dbl>  <dbl>
##  1 71892    NA 
##  2 71460   148.
##  3 58929   178.
##  4 64041   151.
##  5 69722   116.
##  6 59289   165.
##  7 66142   174.
##  8 71034   144.
##  9 65251   154.
## 10 59520   158.
## # ... with 9,990 more rows

We could also specify columns to exclude using -c(). For example, to exclude the Weight column:

select(healthData, -c(Weight))

## # A tibble: 10,000 x 4
##       ID Sex      Age Height
##    <dbl> <chr>  <dbl>  <dbl>
##  1 71892 male       0    NA 
##  2 71460 female    47   148.
##  3 58929 male      78   178.
##  4 64041 male       9   151.
##  5 69722 male       7   116.
##  6 59289 male      30   165.
##  7 66142 male      21   174.
##  8 71034 male      11   144.
##  9 65251 female    10   154.
## 10 59520 female    14   158.
## # ... with 9,990 more rows
…
